# class test

    Code
      print(data)
    Output
      <TurbiData>
          Data of test2 file
          Type: absolute 
      Data:
      # A tibble: 265,968 x 4
        height  time signal    do
         <dbl> <int> <chr>  <dbl>
      1   0.04     0 T       57.4
      2   0.04     0 R       12.1
      3   0.04    10 T       57.7
      # ... with 265,965 more rows
…
