# ggplot

    Code
      head(plot)
    Output
      $data
      # A tibble: 265,934 x 4
         height  time signal    do
          <dbl> <int> <chr>  <dbl>
       1   0.04     0 T       57.4
       2   0.04     0 R       12.1
       3   0.04    10 T       57.7
       4   0.04    10 R       11.9
       5   0.04    20 T       58.7
       6   0.04    20 R       12.0
       7   0.04    30 T       53.9
       8   0.04    30 R       11.8
       9   0.04    40 T       57.5
      10   0.04    40 R       12.0
      # ... with 265,924 more rows
…
