# average_area

    Code
      rlang::hash(data$data)
    Output
      [1] "315e876ada57d3924dc0d37e33e98695"

# ggplot

    Code
      head(plot)
    Output
      $data
      # A tibble: 144 x 4
      # Groups:   time, signal [144]
          time signal  mean .group
         <int> <chr>  <dbl>  <int>
       1     0 R       38.8      1
       2     0 T       38.4      2
       3    10 R       39.4      3
       4    10 T       38.4      4
       5    20 R       39.4      5
       6    20 T       37.9      6
       7    30 R       39.3      7
       8    30 T       37.5      8
       9    40 R       39.2      9
      10    40 T       37.3     10
      # ... with 134 more rows
…
